{
  "mansak": {
    "tabsHTML":[ 
		{
            "tab":"<li><a href=\"#tab1\">أخطاء المنسك</a></li>"
        },
		{
            "tab":"<li class=\"active border_left\"><a href=\"#tab2\">شرح المنسك</a></li>"
        }
	
	
	],
    "tabsContent":[
        {
          "tabDetails":
  			  [
    				{"step":" <p class=\"main_title\">الأخطاء الشائعة في الحلق والتحلل</p><br>"},
    			  {"step":"<p class=\"number\">1</p> <p class=\"mansak\">اعتقاد البعض أن من السنة استقبال القبلة عند الحلق </p> <br>"},
    				{"step":"<p class=\"number\">2</p> <p class=\"mansak\">حلق بعض الرأس، وترك بعضه على هيئة القزع المنهي عنه </p> <br>"},
    				{"step":"<p class=\"number\">3</p> <p class=\"mansak\">قيام بعض النسوة بإظهار شعورهن أمام الرجال أثناء الحلق، وشعر المرأة عورة، يجب ستره عن الأجانب</p> <br>"},
    			  {"step":"<p class=\"number\">4</p> <p class=\"mansak\">اعتقاد البعض أنه لا يجوز للمحرم أن يحلق أو يقصّر شعر محرم آخر يريد التحلل </p> <br><br><br>"}
    				
  			  ]
        },
		{
			"tabDetails":
			[
  				{"step":" <p class=\"main_title\">الحلق أو التقصير</p><br>"},
  				{"step":" <p class=\"number\">1</p><p class=\"mansak\">تحلق شعرك أو تقصره، والمستحب أكثر هو حلق جميع الرأس، فقد دعا النبي صلى الله عليه وسلم للمحلّقين ثلاثًا ودعا للمقصرين مرة</p><br>"},
  				{"step":"<p class=\"number\">2</p><p class=\"mansak\">وإذا اخترت تقصير الشعر فيجب أن يستوعب التقصير جميع أنحاء رأسك، فلا يكفي أن تقصر جهة وتترك أخرى</p><br>"},
  				{"step":"<p class=\"number\">3</p><p class=\"mansak\">المرأة لا تحلق شعر رأسها ولكن تقصره ، وذلك بأن تقص من كل ضفيرة من شعرها قدر أنملة من أنامل الأصابع . والحلق أو التقصير نسك وعبادة وقربة إلى الله عز وجل</p><br>"},
  			  {"step":"<p class=\"number\">4</p><p class=\"mansak\">لابأس أن تحلق لنفسك أو غيرك ولو قبل أن تتحلل</p><br>"},
  			  {"step":" <p class=\"number\">5</p><p class=\"mansak\">بعد رمي جمرة العقبة، وحلق رأسك أو تقصيره يكون قد تحللت التحلل الأول فيحل لك كل شيء حرم عليك بالإحرام من الطيب واللباس وغير ذلك إلا النساء</p><br>"},
			  
			  {"step":"<p class=\"number\">6</p><p class=\"mansak\">يرى بعض أهل العلم أن التحلل الأول يحصل بمجرد الانتهاء من رمي جمرة العقبة ولو لم تنحر أو تحلق  </p><br><br><br> "}
			]
		}      
      ]   
  }
}